[gd_scene load_steps=5 format=2]

[ext_resource path="res://icon.png" type="Texture" id=1]
[ext_resource path="res://Scenes/Character/Charecter.gd" type="Script" id=2]
[ext_resource path="res://Scenes/Character/Camera2D.gd" type="Script" id=3]

[sub_resource type="CircleShape2D" id=1]
radius = 20.3746

[node name="Charecter" type="KinematicBody2D"]
collision_layer = 2
collision_mask = 3
script = ExtResource( 2 )
__meta__ = {
"_edit_group_": true
}

[node name="Sprite" type="Sprite" parent="."]
scale = Vector2( 0.635633, 0.622492 )
texture = ExtResource( 1 )

[node name="CollisionShape2D" type="CollisionShape2D" parent="."]
shape = SubResource( 1 )

[node name="Camera2D" type="Camera2D" parent="."]
current = true
script = ExtResource( 3 )

[node name="FireHand" type="Position2D" parent="."]

[node name="FireballTimer" type="Timer" parent="."]
wait_time = 2.0
one_shot = true
