[gd_scene load_steps=3 format=2]

[ext_resource path="res://Scenes/Character/Charecter.tscn" type="PackedScene" id=1]
[ext_resource path="res://Scenes/Map/Map.tscn" type="PackedScene" id=2]

[node name="Main" type="Node2D"]

[node name="Map" parent="." instance=ExtResource( 2 )]

[node name="Charecter" parent="." instance=ExtResource( 1 )]
position = Vector2( 316.375, 192.957 )
